{
  "numberofresultsreturned": 100,
  "numberofiterations": 100,
  "diversitytype": "chemical",
  "preferabilityoperator": {
    "enable": true,
    "interval": 5,
    "percentage": 5
  },
  "models": [
    {
      "id": "model001",
      "label": "RDKit Molecular Weight Calculator",
      "description": "Calculates molecular weight provided by RDKit 2017.09.03",
      "invocation": {
        "invoker": "python",
        "invokerData": {
          "pythonClass": "RDKitMolWtCalculator",
          "pythonData": "{'property001' : 'MolWt'}"
        }
      },
      "applications": [
        {
          "id": "any"
        }
      ],
      "calculates": [
        {
          "id": "property001"
        }
      ],
      "inputs": [
        {
          "id": "currentMolecule"
        }
     ]
    },
    {
      "id": "model002",
      "label": "RDKit Hydrogen Bond Donors Calculator",
      "description": "Calculates number of hydrogen bond donors provided by RDKit 2017.09.03",
      "invocation": {
        "invoker": "python",
        "invokerData": {
          "pythonClass": "RDKitNHBDCalculator",
          "pythonData": "{'property002' : 'NHBD'}"
        }
      },
      "applications": [
        {
          "id": "any"
        }
      ],
      "calculates": [
        {
          "id": "property002"
        }
      ],
      "inputs": [
        {
          "id": "currentMolecule"
        }
     ]
    },
    {
      "id": "model003",
      "label": "RDKit Hydrogen Bond Acceptors Calculator",
      "description": "Calculates number of hydrogen bond acceptors provided by RDKit 2017.09.03",
      "invocation": {
        "invoker": "python",
        "invokerData": {
          "pythonClass": "RDKitNHBACalculator",
          "pythonData": "{'property003' : 'NHBA'}"
        }
      },
      "applications": [
        {
          "id": "any"
        }
      ],
      "calculates": [
        {
          "id": "property003"
        }
      ],
      "inputs": [
        {
          "id": "currentMolecule"
        }
     ]
    },
    {
      "id": "model004",
      "label": "RDKit Topological Polar Surface Area Calculator",
      "description": "Calculates Topological Polar Surface Area provided by RDKit 2017.09.03",
      "invocation": {
        "invoker": "python",
        "invokerData": {
          "pythonClass": "RDKitTPSACalculator",
          "pythonData": "{'property004' : 'TPSA'}"
        }
      },
      "applications": [
        {
          "id": "any"
        }
      ],
      "calculates": [
        {
          "id": "property004"
        }
      ],
      "inputs": [
        {
          "id": "currentMolecule"
        }
     ]
    },
    {
      "id": "model005",
      "label": "RDKit Rotatable Bonds Calculator",
      "description": "Calculates number of rotatable bonds provided by RDKit 2017.09.03",
      "invocation": {
        "invoker": "python",
        "invokerData": {
          "pythonClass": "RDKitRotBondsCalculator",
          "pythonData": "{'property005' : 'NRotBonds'}"
        }
      },
      "applications": [
        {
          "id": "any"
        }
      ],
      "calculates": [
        {
          "id": "property005"
        }
      ],
      "inputs": [
        {
          "id": "currentMolecule"
        }
     ]
    },
    {
      "id": "model006",
      "label": "RDKit Partition Coefficient Calculator",
      "description": "Calculates partition coefficient provided by RDKit 2017.09.03",
      "invocation": {
        "invoker": "python",
        "invokerData": {
          "pythonClass": "RDKitLogPCalculator",
          "pythonData": "{'property006' : 'clogP'}"
        }
      },
      "applications": [
        {
          "id": "any"
        }
      ],
      "calculates": [
        {
          "id": "property006"
        }
      ],
      "inputs": [
        {
          "id": "currentMolecule"
        }
     ]
    },
    {
      "id": "model007",
      "label": "RDKit Molecular Refractivity Calculator",
      "description": "Calculates molecular refractivity provided by RDKit 2017.09.03",
      "invocation": {
        "invoker": "python",
        "invokerData": {
          "pythonClass": "RDKitMRCalculator",
          "pythonData": "{'property007' : 'cMR'}"
        }
      },
      "applications": [
        {
          "id": "any"
        }
      ],
      "calculates": [
        {
          "id": "property007"
        }
      ],
      "inputs": [
        {
          "id": "currentMolecule"
        }
     ]
    },
    {
      "id": "model008",
      "label": "Water Solubility Calculator",
      "description": "Calculates Water Solubility of molecules based on molecular descriptors",
      "invocation": {
        "invoker": "python",
        "invokerData": {
          "pythonClass": "WaterSolubilityCalculator",
          "pythonData": "{'property008' : 'clogSw'}"
        }
      },
      "applications": [
        {
          "id": "any"
        }
      ],
      "calculates": [
        {
          "id": "property008"
        }
      ],
      "inputs": [
        {
          "id": "currentMolecule"
        }
     ]
    },
    {
      "id": "model009",
      "label": "Cost",
      "description": "Calculates cost of substance",
      "invocation": {
        "invoker": "python",
        "invokerData": {
          "pythonClass": "SubstanceCostCalculator",
          "pythonData": "{'property009' : 'cost'}"
        }
      },
      "applications": [
        {
          "id": "any"
        }
      ],
      "calculates": [
        {
          "id": "property009"
        }
      ],
      "inputs": [
        {
          "id": "currentMolecule"
        }
      ]
    },
    {
      "id": "model010",
      "label": "RDKit Molecular Similarity Calculator",
      "description": "Calculates molecular Tanimoto fingerprint similarity provided by RDKit 2017.09.03",
      "invocation": {
        "invoker": "python",
        "invokerData": {
          "pythonClass": "RDKitFPSimCalculator",
          "pythonData": "{'property010' : 'FPSim'}"
        }
      },
      "applications": [
        {
          "id": "any"
        }
      ],
      "calculates": [
        {
          "id": "property010"
        }
      ],
      "inputs": [
        {
          "id": "currentMolecule"
        },
        {
          "id": "targetMolecule"
        }
     ]
    }
  ],
  "quantities": [
    {
      "id": "property001",
      "label": "Molecular Weight",
      "type": "property"
    },
    {
      "id": "property002",
      "label": "Number of Hydrogen Bond Donors",
      "type": "property"
    },
    {
      "id": "property003",
      "label": "Number of Hydrogen Bond Acceptors",
      "type": "property"
    },
    {
      "id": "property004",
      "label": "Topological Polar Surface Area",
      "type": "property"
    },
    {
      "id": "property005",
      "label": "Number of Rotatable Bonds",
      "type": "property"
    },
    {
      "id": "property006",
      "label": "Partition Coefficient",
      "type": "property"
    },
    {
      "id": "property007",
      "label": "Molecular Refractivity",
      "type": "property"
    },
    {
      "id": "property008",
      "label": "Water Solubility",
      "type": "property"
    },
    {
      "id": "property009",
      "label": "Cost (\u20ac/Tonne)",
      "type": "property"
    },
    {
      "id": "property010",
      "label": "Tanimoto Fingerprint Similarity",
      "type": "property"
    },
    {
      "id": "currentMolecule",
      "type": "molecule",
      "provided": true
    },
    {
      "id": "targetMolecule",
      "type": "molecule",
      "provided": true
    }
  ],
  "conditions": [],
  "quantityCriteria": [
    {
      "id": "property001",
      "criteria": {
        "functor": "between",
        "values": [
          180,
          500
        ]
      }
    },
    {
      "id": "property002",
      "criteria": {
        "functor": "lessthan",
        "values": [
          5
        ]
      }
    },
    {
      "id": "property003",
      "criteria": {
        "functor": "lessthan",
        "values": [
          10
        ]
      }
    },
    {
      "id": "property006",
      "criteria": {
        "functor": "between",
        "values": [
          -0.4,
          5.6
        ]
      }
    },
    {
      "id": "property007",
      "criteria": {
        "functor": "between",
        "values": [
          40,
          130
        ]
      }
    },
    {
      "id": "property004",
      "criteria": {
        "functor": "lessthan",
        "values": [
          10
        ]
      }
    },
    {
      "id": "property005",
      "criteria": {
        "functor": "lessthan",
        "values": [
          140
        ]
      }
    }
  ]
}
